<?xml version="1.0" encoding="utf-8"?>
<!-- Generator: Adobe Illustrator 16.0.0, SVG Export Plug-In . SVG Version: 6.00 Build 0)  -->
<!DOCTYPE svg PUBLIC "-//W3C//DTD SVG 1.1//EN" "http://www.w3.org/Graphics/SVG/1.1/DTD/svg11.dtd">
<svg version="1.1" id="Layer_1" xmlns="http://www.w3.org/2000/svg" xmlns:xlink="http://www.w3.org/1999/xlink" x="0px" y="0px"
	 width="16px" height="15px" viewBox="0 0 16 15" enable-background="new 0 0 16 15" xml:space="preserve">
<title>F36B9D3E-F2C3-4209-B2E0-43F83D0CF864</title>
<desc>Created with sketchtool.</desc>
<g id="Welcome">
	<g id="Style-Guide" transform="translate(-483.000000, -555.000000)">
		<g id="icon_favorite" transform="translate(476.000000, 547.000000)">
			<rect id="Rectangle-5" fill="#FFFFFF" fill-opacity="0" width="30" height="30"/>
			<path id="favorite-icon" fill="#FA6332" d="M20.551,8.531C18.031,7.208,15.373,8.564,15,10.34
				c-0.373-1.775-3.031-3.132-5.551-1.809C6.09,10.295,4.77,16.544,15,23C25.23,16.544,23.91,10.295,20.551,8.531L20.551,8.531z"/>
		</g>
	</g>
</g>
</svg>
