<?xml version="1.0" encoding="UTF-8" standalone="no"?>
<svg width="18px" height="18px" viewBox="0 0 18 18" version="1.1" xmlns="http://www.w3.org/2000/svg" xmlns:xlink="http://www.w3.org/1999/xlink">
    <!-- Generator: sketchtool 39.1 (31720) - http://www.bohemiancoding.com/sketch -->
    <title>33FD31EE-B784-4448-8793-2CD9FE8071C8</title>
    <desc>Created with sketchtool.</desc>
    <defs></defs>
    <g id="Welcome" stroke="none" stroke-width="1" fill="none" fill-rule="evenodd">
        <g id="Style-Guide" transform="translate(-282.000000, -553.000000)">
            <g id="icon_close_naked" transform="translate(276.000000, 547.000000)">
                <rect id="Rectangle-5" fill-opacity="0" fill="#FFFFFF" x="0" y="0" width="30" height="30"></rect>
                <g id="Group" transform="translate(6.000000, 6.000000)" fill="#000000">
                    <rect id="Rectangle-2" transform="translate(9.000000, 9.000000) rotate(-315.000000) translate(-9.000000, -9.000000) " x="8" y="-2" width="2" height="22"></rect>
                    <rect id="Rectangle" transform="translate(9.000000, 9.000000) rotate(-585.000000) translate(-9.000000, -9.000000) " x="8" y="-2" width="2" height="22"></rect>
                </g>
            </g>
        </g>
    </g>
</svg>