<?xml version="1.0" encoding="UTF-8" standalone="no"?>
<svg width="18px" height="18px" viewBox="0 0 18 18" version="1.1" xmlns="http://www.w3.org/2000/svg" xmlns:xlink="http://www.w3.org/1999/xlink">
    <!-- Generator: sketchtool 39.1 (31720) - http://www.bohemiancoding.com/sketch -->
    <title>03377685-7BCB-4AA8-8586-3CB2184E1BD8</title>
    <desc>Created with sketchtool.</desc>
    <defs></defs>
    <g id="Welcome" stroke="none" stroke-width="1" fill="none" fill-rule="evenodd">
        <g id="Style-Guide" transform="translate(-643.000000, -553.000000)">
            <g id="icon_facebook" transform="translate(637.000000, 547.000000)">
                <rect id="Rectangle-5" fill-opacity="0" fill="#FFFFFF" x="0" y="0" width="30" height="30"></rect>
                <path d="M22,6 L8,6 C6.9,6 6,6.9 6,8 L6,22 C6,23.101 6.9,24 8,24 L15,24 L15,17 L13,17 L13,14.525 L15,14.525 L15,12.475 C15,10.311 16.212,8.791 18.766,8.791 L20.569,8.793 L20.569,11.398 L19.372,11.398 C18.378,11.398 18,12.144 18,12.836 L18,14.526 L20.568,14.526 L20,17 L18,17 L18,24 L22,24 C23.1,24 24,23.101 24,22 L24,8 C24,6.9 23.1,6 22,6 L22,6 Z" id="facebook" fill="#000000"></path>
            </g>
        </g>
    </g>
</svg>